{
  "builds": [
    {
      "name": "centos9stream",
      "builder_type": "amazon-ebs",
      "build_time": 1654766786,
      "files": null,
      "artifact_id": "eu-west-1:ami-08abc8ccc1f77e64b",
      "packer_run_uuid": "cb067029-4ca6-2d69-adc1-c3f7bd0de748",
      "custom_data": null
    }
  ],
  "last_run_uuid": "cb067029-4ca6-2d69-adc1-c3f7bd0de748"
}