{
  "builds": [
    {
      "name": "centos9stream",
      "builder_type": "amazon-ebs",
      "build_time": 1654721053,
      "files": null,
      "artifact_id": "eu-west-1:ami-057564ee188edb6d4",
      "packer_run_uuid": "e95b747e-5864-b3eb-89dd-caede1bfc1fb",
      "custom_data": null
    },
    {
      "name": "centos9stream",
      "builder_type": "amazon-ebs",
      "build_time": 1654763338,
      "files": null,
      "artifact_id": "eu-west-1:ami-0587d7adea42ba5d3",
      "packer_run_uuid": "aa7be423-0a0c-cee5-f7b0-f26401dac056",
      "custom_data": null
    }
  ],
  "last_run_uuid": "aa7be423-0a0c-cee5-f7b0-f26401dac056"
}